[{
    "name": "abas-selector-widget",
    "version": "1.0.0",
    "description": "Simple database value selector",
    "preview": "bower_components/abas-selector-widget/assets/preview.png",
    "author": "abas Software GmbH",
    "label": "Selector",
    "path": "bower_components/abas-selector-widget/abas-selector-widget.html",
    "attr": {       
    },
    "title": "abas-selector-widget",
    "shape": {
        "l": {
            "width": 6,
            "height": 2
        },
        "m": {
            "width": 6,
            "height": 2
        },
        "s": {
            "width": 6,
            "height": 2
        }
    }
}]
